{
	"credit": "Made with Blockbench",
	"parent": "block/block",
	"ambientocclusion": false,
	"elements": [
		{
			"name": "Center post",
			"from": [6, 0, 14],
			"to": [10, 16, 18],
			"rotation": {"angle": 0, "axis": "y", "origin": [8, 8, 16]},
			"faces": {
				"north": {"uv": [4, 0, 10, 16], "texture": "#wall"},
				"east": {"uv": [4, 0, 10, 16], "texture": "#wall"},
				"south": {"uv": [4, 0, 10, 16], "texture": "#wall"},
				"west": {"uv": [4, 0, 10, 16], "texture": "#wall"},
				"up": {"uv": [0, 0, 6, 6], "texture": "#wall", "cullface": "up"},
				"down": {"uv": [8, 8, 14, 14], "texture": "#wall", "cullface": "down"}
			}
		},
		{
			"name": "Center post",
			"from": [6, 0, -2],
			"to": [10, 16, 2],
			"rotation": {"angle": 0, "axis": "y", "origin": [8, 8, 0]},
			"faces": {
				"north": {"uv": [4, 0, 10, 16], "texture": "#wall"},
				"east": {"uv": [4, 0, 10, 16], "texture": "#wall"},
				"south": {"uv": [4, 0, 10, 16], "texture": "#wall"},
				"west": {"uv": [4, 0, 10, 16], "texture": "#wall"},
				"up": {"uv": [0, 0, 6, 6], "texture": "#wall", "cullface": "up"},
				"down": {"uv": [8, 8, 14, 14], "texture": "#wall", "cullface": "down"}
			}
		},
		{
			"name": "wall",
			"from": [6.2, 0, 2],
			"to": [9.8, 6, 14],
			"rotation": {"angle": 0, "axis": "y", "origin": [8, -3, 12]},
			"faces": {
				"east": {"uv": [2, 2, 14, 8], "texture": "#wall"},
				"west": {"uv": [2, 10, 14, 16], "texture": "#wall"},
				"up": {"uv": [6, 4, 10, 16], "texture": "#wall"},
				"down": {"uv": [5, 4, 9, 16], "texture": "#wall", "cullface": "down"}
			}
		},
		{
			"name": "wall",
			"from": [8, 6, 1],
			"to": [8, 16, 14],
			"rotation": {"angle": 0, "axis": "y", "origin": [8.2, 3, 12]},
			"faces": {
				"east": {"uv": [4, 2, 13, 12], "texture": "#2"},
				"west": {"uv": [0, 2, 13, 12], "texture": "#2"}
			}
		}
	],
	"display": {
		"gui": {
			"rotation": [30, 135, 0],
			"scale": [0.625, 0.625, 0.625]
		},
		"fixed": {
			"rotation": [0, 90, 0],
			"scale": [0.5, 0.5, 0.5]
		}
	},
	"groups": [
		{
			"name": "sandstone_wall_post6",
			"origin": [8, 8, 8],
			"children": [0, 1]
		},
		{
			"name": "sandstone_wall_side6",
			"origin": [8, 8, 8],
			"children": [2, 3,
				{
					"name": "sandstone_wall_post6",
					"origin": [8, 8, 8],
					"children": []
				}
			]
		}
	]
}