{
	"parent": "mcwfurnitures:block/parent/nightstand_8",
	"textures": {
		"1": "thebetweenlands:blocks/log_hearthgrove",
		"2": "thebetweenlands:blocks/log_hearthgrove",
		"3": "thebetweenlands:blocks/filtered_silt_glass_0",
		"particle": "thebetweenlands:blocks/log_hearthgrove",
		"1_2": "thebetweenlands:blocks/syrmorite_block"
	}
}
