{
	"parent": "mcwfurnitures:block/parent/nightstand_2",
	"textures": {
		"0": "mcwfurnitures:block/oak/stripped_jungle_log",
		"1": "thebetweenlands:blocks/log_hearthgrove",
		"2": "thebetweenlands:blocks/log_hearthgrove",
		"particle": "thebetweenlands:blocks/log_hearthgrove",
		"1_2": "thebetweenlands:blocks/syrmorite_block"
	}
}
