{
	"parent": "mcwfurnitures:block/parent/nightstand_10",
	"textures": {
		"1": "thebetweenlands:blocks/log_hearthgrove",
		"2": "thebetweenlands:blocks/log_hearthgrove",
		"particle": "thebetweenlands:blocks/log_hearthgrove"
	}
}
