{
	"forge_marker": 1,
	"variants": {
		"variant": {
			"default": {
				"model": "thebetweenlands:internal/spook_event",
				"custom": {
					"model_base": "thebetweenlands:block/cragrock_default",
					"model_active": "thebetweenlands:block/cragrock_default_spook"
				}
			},
			"mossy_1": {
				"model": "thebetweenlands:cragrock_mossy_1",
				"custom": {
					"model_base": "thebetweenlands:block/internal/spook_event",
					"model_base_data": {
						"model_base": "thebetweenlands:block/cragrock_mossy_1",
						"model_active": "thebetweenlands:block/cragrock_mossy_1_spook"
					},
					"model_active": "thebetweenlands:block/cragrock_mossy_1_frosty"
				}
			},
			"mossy_2": {
				"model": "thebetweenlands:internal/winter_event",
				"custom": {
					"model_base": "thebetweenlands:block/internal/spook_event",
					"model_base_data": {
						"model_base": "thebetweenlands:block/cragrock_mossy_2",
						"model_active": "thebetweenlands:block/cragrock_mossy_2_spook"
					},
					"model_active": "thebetweenlands:block/cragrock_mossy_2_frosty"
				}
			}
		}
	}
}
