{
	"forge_marker": 1,
	"variants": {
		"normal": {
			"model": "thebetweenlands:leaves_rubber_tree",
			"custom": {
				"model_base": "thebetweenlands:block/internal/spook_event",
				"model_base_data": {
					"model_base": "thebetweenlands:block/leaves_rubber_tree",
					"model_active": "thebetweenlands:block/leaves_rubber_tree_spook"				
				},
				"model_active": "thebetweenlands:block/leaves_rubber_tree_frosty"
			}
		}
	}
}
