{
	"__comment": "Designed by Wiiv with Cubik Studio - https://cubik.studio",
	"textures": {
		"particle": "blocks/repeater_on",
		"slab": "betweenlandsredstone:blocks/diode_side",
		"top": "quark:blocks/randomizer_on_left",
		"lit": "betweenlandsredstone:blocks/scabyst_torch_on",
		"unlit": "betweenlandsredstone:blocks/scabyst_torch_off"
	},
	"elements": [ 	 
		{
			"__comment": "Element",
			"from": [ 0, 0, 0 ],
			"to": [ 16, 2, 16 ],
			"faces": {
				"down": { "uv": [ 0, 0, 16, 16 ], "texture": "#slab", "cullface": "down" },
				"up": { "uv": [ 0, 0, 16, 16 ], "texture": "#top" },
				"north": { "uv": [ 0, 14, 16, 16 ], "texture": "#slab", "cullface": "north" },
				"south": { "uv": [ 0, 14, 16, 16 ], "texture": "#slab", "cullface": "south" },
				"west": { "uv": [ 0, 14, 16, 16 ], "texture": "#slab", "cullface": "west" },
				"east": { "uv": [ 0, 14, 16, 16 ], "texture": "#slab", "cullface": "east" }
			}
		},
		{
			"__comment": "Element",
			"from": [ 7, 7, 12 ],
			"to": [ 9, 7.001, 14 ],
			"faces": {
				"up": { "uv": [ 7, 6, 9, 8 ], "texture": "#lit" }
			}
		},
		{
			"__comment": "Element",
			"from": [ 7, 2, 11 ],
			"to": [ 9, 8, 15 ],
			"faces": {
				"west": { "uv": [ 6, 5, 10, 11 ], "texture": "#lit" },
				"east": { "uv": [ 6, 5, 10, 11 ], "texture": "#lit" }
			}
		},
		{
			"__comment": "Element",
			"from": [ 6, 2, 12 ],
			"to": [ 10, 8, 14 ],
			"faces": {
				"north": { "uv": [ 6, 5, 10, 11 ], "texture": "#lit" },
				"south": { "uv": [ 6, 5, 10, 11 ], "texture": "#lit" }
			}
		},
		{
			"__comment": "Element",
			"from": [ 2, 7, 7 ],
			"to": [ 4, 7.001, 9 ],
			"faces": {
				"up": { "uv": [ 7, 6, 9, 8 ], "texture": "#lit" }
			}
		},
		{
			"__comment": "Element",
			"from": [ 1, 2, 7 ],
			"to": [ 5, 8, 9 ],
			"faces": {
				"north": { "uv": [ 6, 5, 10, 11 ], "texture": "#lit" },
				"south": { "uv": [ 6, 5, 10, 11 ], "texture": "#lit" }
			}
		},
		{
			"__comment": "Element",
			"from": [ 2, 2, 6 ],
			"to": [ 4, 8, 10 ],
			"faces": {
				"west": { "uv": [ 6, 5, 10, 11 ], "texture": "#lit" },
				"east": { "uv": [ 6, 5, 10, 11 ], "texture": "#lit" }
			}
		},
		{
			"__comment": "Element",
			"from": [ 12, 2, 7 ],
			"to": [ 14, 7, 9 ],
			"faces": {
				"down": { "uv": [ 7, 12, 9, 14 ], "texture": "#unlit" },
				"up": { "uv": [ 7, 6, 9, 8 ], "texture": "#unlit" },
				"north": { "uv": [ 7, 6, 9, 11 ], "texture": "#unlit" },
				"south": { "uv": [ 7, 6, 9, 11 ], "texture": "#unlit" },
				"west": { "uv": [ 7, 6, 9, 11 ], "texture": "#unlit" },
				"east": { "uv": [ 7, 6, 9, 11 ], "texture": "#unlit" }
			}
		},
		{
			"__comment": "Element",
			"from": [ 6, 2, 6 ],
			"to": [ 10, 4, 10 ],
			"faces": {
				"down": { "uv": [ 6, 6, 10, 10 ], "texture": "#top" },
				"up": { "uv": [ 6, 6, 10, 10 ], "texture": "#top" },
				"north": { "uv": [ 6, 8, 10, 10 ], "texture": "#top" },
				"south": { "uv": [ 6, 6, 10, 8 ], "texture": "#top" },
				"west": { "uv": [ 6, 8, 10, 10 ], "texture": "#top" },
				"east": { "uv": [ 6, 6, 10, 8 ], "texture": "#top" }
			}
		}
	]
}