{
	"parent": "mcwfurnitures:block/parent/dresser",
	"textures": {
		"2": "mcwfurnitures:block/oak/stripped_birch_log",
		"particle": "thebetweenlands:blocks/root_top",
		"texture": "thebetweenlands:blocks/root_top",
		"1_2": "thebetweenlands:blocks/syrmorite_block"
	}
}
