{
	"parent": "mcwfurnitures:block/parent/combined/cupboard_2",
	"textures": {
        "0": "thebetweenlands:blocks/syrmorite_block",
		"1": "thebetweenlands:blocks/log_weedwood",
		"2": "mcwfurnitures:block/oak/stripped_oak_log",
		"particle": "thebetweenlands:blocks/log_weedwood"
	}
}
