{
	"parent": "mcwfurnitures:block/parent/combined/cupboard_4",
	"textures": {
		"1": "thebetweenlands:blocks/log_weedwood",
		"3": "thebetweenlands:blocks/log_weedwood",
		"4": "mcwfurnitures:block/oak/stripped_oak_log",
		"5": "mcwfurnitures:block/oak/stripped_oak_log",
		"particle": "thebetweenlands:blocks/log_weedwood",
		"1_2": "thebetweenlands:blocks/syrmorite_block"
	}
}
