{
	"parent": "mcwwindows:block/parent/win_1x1",
	"textures": {
		"0": "thebetweenlands:blocks/root_top",
		"1": "thebetweenlands:blocks/filtered_silt_glass_0",
		"particle": "thebetweenlands:blocks/root_top"      
	}
}