{
	"parent": "mcwwindows:block/parent/window_2tall_open",
	"textures": {
		"0": "thebetweenlands:blocks/root_top",
		"1": "thebetweenlands:blocks/filtered_silt_glass_0",
		"particle": "thebetweenlands:blocks/root_top"      
	}
}