{
	"parent": "mcwwindows:block/parent/win_2x1_open",
	"textures": {
		"0": "thebetweenlands:blocks/rotten_planks",
		"1": "thebetweenlands:blocks/filtered_silt_glass_0",
		"particle": "thebetweenlands:blocks/rotten_planks"      
	}
}