{
	"parent": "mcwwindows:block/parent/window",
	"textures": {
		"0": "thebetweenlands:blocks/log_hearthgrove",
		"1": "thebetweenlands:blocks/filtered_silt_glass_0",
		"particle": "thebetweenlands:blocks/log_hearthgrove"      
	}
}