{
	"parent": "mcwwindows:block/parent/window_open",
	"textures": {
		"0": "thebetweenlands:blocks/weedwood_planks",
		"1": "thebetweenlands:blocks/filtered_silt_glass_0",
		"particle": "thebetweenlands:blocks/weedwood_planks"      
	}
}