
	
{
	"parent": "mcwfences:block/parent/stockade_fence_side",
	"textures": {
		"4": "thebetweenlands:blocks/giant_root_planks",
		"5": "thebetweenlands:blocks/root_top",
		"particle": "thebetweenlands:blocks/giant_root_planks"
	}
}