{
	"parent": "mcwfurnitures:block/parent/dresser_12",
	"textures": {
		"1": "mcwfurnitures:block/oak/stripped_oak_log",
		"2": "mcwfurnitures:block/oak/stripped_oak_log",
		"3": "thebetweenlands:blocks/log_weedwood",
		"particle": "thebetweenlands:blocks/log_weedwood",
		"texture": "thebetweenlands:blocks/log_weedwood",
		"1_2": "thebetweenlands:blocks/syrmorite_block"
	}
}
