{
	"parent": "mcwfurnitures:block/parent/dresser_9",
	"textures": {
		"1": "mcwfurnitures:block/oak/stripped_oak_log",
		"5": "minecraft:blocks/bookshelf",
		"particle": "thebetweenlands:blocks/log_weedwood",
		"texture": "thebetweenlands:blocks/log_weedwood",
		"1_2": "thebetweenlands:blocks/syrmorite_block"
	}
}
