{
    "multipart": [
        {
            "when": {
                "facing": "north"
            },
            "apply": {
                "model": "teastory:white_tea_zisha_kettle"
            }
        },
        {
            "when": {
                "facing": "east"
            },
            "apply": {
                "model": "teastory:white_tea_zisha_kettle",
                "y": 90
            }
        },
        {
            "when": {
                "facing": "south"
            },
            "apply": {
                "model": "teastory:white_tea_zisha_kettle",
                "y": 180
            }
        },
        {
            "when": {
                "facing": "west"
            },
            "apply": {
                "model": "teastory:white_tea_zisha_kettle",
                "y": 270
            }
        }
    ]
}