
	
{
	"parent": "mcwfences:block/parent/highley_gate",
	"textures": {
		"2": "thebetweenlands:blocks/rotten_planks",
		"particle": "thebetweenlands:blocks/rotten_planks",
		"texture": "thebetweenlands:blocks/rotten_bark"
	}
}