
	
{
	"parent": "mcwfences:block/parent/highley_gate",
	"textures": {
		"2": "thebetweenlands:blocks/hearthgrove_planks",
		"particle": "thebetweenlands:blocks/hearthgrove_planks",
		"texture": "thebetweenlands:blocks/log_hearthgrove"
	}
}