{
	"parent": "mcwfences:block/parent/highley_gate_open",
	"textures": {
		"2": "thebetweenlands:blocks/weedwood_planks",
		"particle": "thebetweenlands:blocks/weedwood_planks",
		"texture": "thebetweenlands:blocks/log_weedwood"
	}
}