{
    "ambientocclusion": false,
    "display": {
        "gui": {
            "rotation": [30, 225, 0],
            "translation": [0, 0, 0],
            "scale": [0.625, 0.625, 0.625]
        },
        "ground": {
            "rotation": [0, 0, 0],
            "translation": [0, 3, 0],
            "scale": [0.25, 0.25, 0.25]
        },
        "fixed": {
            "rotation": [0, 0, 0],
            "translation": [0, 0, 0],
            "scale": [0.5, 0.5, 0.5]
        },
        "thirdperson_righthand": {
            "rotation": [75, 45, 0],
            "translation": [0, 2.5, 0],
            "scale": [0.375, 0.375, 0.375]
        },
        "firstperson_righthand": {
            "rotation": [0, 45, 0],
            "translation": [0, 0, 0],
            "scale": [0.40, 0.40, 0.40]
        },
        "firstperson_lefthand": {
            "rotation": [0, 225, 0],
            "translation": [0, 0, 0],
            "scale": [0.40, 0.40, 0.40]
        }
    },
    "textures": {
        "0": "thebetweenlands:blocks/smooth_cragrock",
        "particle": "thebetweenlands:blocks/smooth_cragrock",
        "-1": "teastory:blocks/oolongtea"
    },
    "elements": [
        {
            "name": "bo",
            "from": [6.0, 0.0, 6.0],
            "to": [10.0, 1.0, 10.0],
            "faces": {
                "north": {
                    "texture": "#0",
                    "uv": [6.0, 15.0, 10.0, 16.0]
                },
                "east": {
                    "texture": "#0",
                    "uv": [6.0, 15.0, 10.0, 16.0]
                },
                "south": {
                    "texture": "#0",
                    "uv": [6.0, 15.0, 10.0, 16.0]
                },
                "west": {
                    "texture": "#0",
                    "uv": [6.0, 15.0, 10.0, 16.0]
                },
                "up": {
                    "texture": "#0",
                    "uv": [6.0, 6.0, 10.0, 10.0]
                },
                "down": {
                    "texture": "#0",
                    "uv": [6.0, 6.0, 10.0, 10.0]
                }
            }
        },
        {
            "name": "north",
            "from": [6.0, 1.0, 5.0],
            "to": [10.0, 5.0, 6.0],
            "faces": {
                "north": {
                    "texture": "#0",
                    "uv": [6.0, 11.0, 10.0, 15.0]
                },
                "east": {
                    "texture": "#0",
                    "uv": [5.0, 11.0, 6.0, 15.0]
                },
                "south": {
                    "texture": "#0",
                    "uv": [6.0, 11.0, 10.0, 15.0]
                },
                "west": {
                    "texture": "#0",
                    "uv": [10.0, 10.0, 11.0, 14.0]
                },
                "up": {
                    "texture": "#0",
                    "uv": [6.0, 5.0, 10.0, 6.0]
                },
                "down": {
                    "texture": "#0",
                    "uv": [6.0, 5.0, 10.0, 6.0]
                }
            }
        },
        {
            "name": "south",
            "from": [6.0, 1.0, 10.0],
            "to": [10.0, 5.0, 11.0],
            "faces": {
                "north": {
                    "texture": "#0",
                    "uv": [6.0, 11.0, 10.0, 15.0]
                },
                "east": {
                    "texture": "#0",
                    "uv": [5.0, 11.0, 6.0, 15.0]
                },
                "south": {
                    "texture": "#0",
                    "uv": [6.0, 11.0, 10.0, 15.0]
                },
                "west": {
                    "texture": "#0",
                    "uv": [10.0, 11.0, 11.0, 15.0]
                },
                "up": {
                    "texture": "#0",
                    "uv": [6.0, 10.0, 10.0, 11.0]
                },
                "down": {
                    "texture": "#0",
                    "uv": [6.0, 10.0, 10.0, 11.0]
                }
            }
        },
        {
            "name": "east",
            "from": [10.0, 1.0, 6.0],
            "to": [11.0, 5.0, 10.0],
            "faces": {
                "north": {
                    "texture": "#0",
                    "uv": [5.0, 11.0, 6.0, 15.0]
                },
                "east": {
                    "texture": "#0",
                    "uv": [6.0, 11.0, 10.0, 15.0]
                },
                "south": {
                    "texture": "#0",
                    "uv": [10.0, 11.0, 11.0, 15.0]
                },
                "west": {
                    "texture": "#0",
                    "uv": [6.0, 11.0, 10.0, 15.0]
                },
                "up": {
                    "texture": "#0",
                    "uv": [10.0, 6.0, 11.0, 10.0]
                },
                "down": {
                    "texture": "#0",
                    "uv": [10.0, 6.0, 11.0, 10.0]
                }
            }
        },
        {
            "name": "west",
            "from": [5.0, 1.0, 6.0],
            "to": [6.0, 5.0, 10.0],
            "faces": {
                "north": {
                    "texture": "#0",
                    "uv": [10.0, 11.0, 11.0, 15.0]
                },
                "east": {
                    "texture": "#0",
                    "uv": [6.0, 11.0, 10.0, 15.0]
                },
                "south": {
                    "texture": "#0",
                    "uv": [5.0, 11.0, 6.0, 15.0]
                },
                "west": {
                    "texture": "#0",
                    "uv": [6.0, 11.0, 10.0, 15.0]
                },
                "up": {
                    "texture": "#0",
                    "uv": [5.0, 6.0, 6.0, 10.0]
                },
                "down": {
                    "texture": "#0",
                    "uv": [5.0, 6.0, 6.0, 10.0]
                }
            }
        },
        {
            "name": "water",
            "from": [6.0, 1.0, 6.0],
            "to": [10.0, 4.0, 10.0],
            "faces": {
                "north": {
                    "texture": "#-1",
                    "uv": [0.0, 0.0, 4.0, 3.0]
                },
                "east": {
                    "texture": "#-1",
                    "uv": [0.0, 0.0, 4.0, 3.0]
                },
                "south": {
                    "texture": "#-1",
                    "uv": [0.0, 0.0, 4.0, 3.0]
                },
                "west": {
                    "texture": "#-1",
                    "uv": [0.0, 0.0, 4.0, 3.0]
                },
                "up": {
                    "texture": "#-1",
                    "uv": [0.0, 0.0, 4.0, 4.0]
                },
                "down": {
                    "texture": "#-1",
                    "uv": [0.0, 0.0, 4.0, 4.0]
                }
            }
        }
    ]
}