{
	"credit": "Made with Blockbench",
	"textures": {
		"0": "teastory:blocks/cast_iron_teapot_decorated",
		"1": "teastory:blocks/teadrink",
		"particle": "teastory:blocks/cast_iron_teapot_decorated"
	},
	"elements": [
		{
			"from": [4, 0, 4],
			"to": [12, 5, 12],
			"rotation": {"angle": 0, "axis": "y", "origin": [-8, 0, -8]},
			"faces": {
				"north": {"uv": [0, 6, 16, 16], "texture": "#0"},
				"east": {"uv": [0, 6, 16, 16], "texture": "#0"},
				"south": {"uv": [0, 6, 16, 16], "texture": "#0"},
				"west": {"uv": [0, 6, 16, 16], "texture": "#0"},
				"up": {"uv": [7, 2, 11, 6], "texture": "#0"},
				"down": {"uv": [7, 2, 11, 6], "texture": "#0"}
			}
		},
		{
			"from": [6, 5, 6],
			"to": [10, 6, 10],
			"rotation": {"angle": 0, "axis": "y", "origin": [-8, 0, -8]},
			"faces": {
				"north": {"uv": [0, 5.5, 2, 6], "texture": "#0"},
				"east": {"uv": [0, 5.5, 2, 6], "texture": "#0"},
				"south": {"uv": [0, 5.5, 2, 6], "texture": "#0"},
				"west": {"uv": [0, 5.5, 2, 6], "texture": "#0"}
			}
		},
		{
			"from": [5.5, 6, 5.5],
			"to": [10.5, 7, 10.5],
			"rotation": {"angle": 0, "axis": "y", "origin": [-8, 0, -8]},
			"faces": {
				"north": {"uv": [0, 5, 2.5, 5.5], "texture": "#0"},
				"east": {"uv": [0, 5, 2.5, 5.5], "texture": "#0"},
				"south": {"uv": [0, 5, 2.5, 5.5], "texture": "#0"},
				"west": {"uv": [0, 5, 2.5, 5.5], "texture": "#0"},
				"up": {"uv": [4.5, 3.5, 7, 6], "texture": "#0"},
				"down": {"uv": [4.5, 3.5, 7, 6], "texture": "#0"}
			}
		},
		{
			"from": [7.5, 7, 7.5],
			"to": [8.5, 8, 8.5],
			"rotation": {"angle": 0, "axis": "y", "origin": [-8, 0, -8]},
			"faces": {
				"north": {"uv": [15, 3.5, 15.5, 4], "texture": "#0"},
				"east": {"uv": [15, 3.5, 15.5, 4], "texture": "#0"},
				"south": {"uv": [15, 3.5, 15.5, 4], "texture": "#0"},
				"west": {"uv": [15, 3.5, 15.5, 4], "texture": "#0"},
				"up": {"uv": [15, 3.5, 15.5, 4], "texture": "#0"}
			}
		},
		{
			"from": [7, 1.30656, 2.4588],
			"to": [9, 3.30656, 4.4588],
			"rotation": {"angle": 22.5, "axis": "x", "origin": [8, 2.30656, 3.4588]},
			"faces": {
				"east": {"uv": [11, 6, 15, 2], "rotation": 180, "texture": "#0"},
				"west": {"uv": [11, 2, 15, 6], "texture": "#0"},
				"up": {"uv": [15, 4, 16, 5], "texture": "#0"},
				"down": {"uv": [15, 5, 16, 6], "texture": "#0"}
			}
		},
		{
			"from": [7.002, 1.76534, 2.15224],
			"to": [8.998, 4.76534, 3.65224],
			"rotation": {"angle": -22.5, "axis": "x", "origin": [8.002, 1.76538, 2.1522]},
			"faces": {
				"north": {"uv": [0, 3.5, 0.5, 5], "texture": "#0"},
				"east": {"uv": [0, 3.5, 0.5, 5], "texture": "#0"},
				"south": {"uv": [0, 3.5, 0.5, 5], "texture": "#0"},
				"west": {"uv": [0, 3.5, 0.5, 5], "texture": "#0"}
			}
		},
		{
			"from": [7, 3.89806, 0.9471],
			"to": [9, 5.39806, 2.4471],
			"rotation": {"angle": 22.5, "axis": "x", "origin": [8, 5.39806, 1.6971]},
			"faces": {
				"north": {"uv": [7, 0.5, 9, 2], "texture": "#0"},
				"east": {"uv": [0, 3.5, 0.5, 4], "texture": "#0"},
				"west": {"uv": [0, 3.5, 0.5, 4], "texture": "#0"},
				"up": {"uv": [0, 3.5, 0.5, 4], "texture": "#0"},
				"down": {"uv": [0, 3.5, 0.5, 4], "texture": "#0"}
			}
		},
		{
			"name": "tea",
			"from": [7.2, 4.09806, 1.1471],
			"to": [8.8, 5.19806, 2.2471],
			"rotation": {"angle": 22.5, "axis": "x", "origin": [8, 5.39806, 1.6971]},
			"faces": {
				"north": {"uv": [8, 0, 9, 1], "texture": "#1"},
				"east": {"uv": [0, 3.5, 0.5, 4], "texture": "#missing"},
				"west": {"uv": [0, 3.5, 0.5, 4], "texture": "#missing"},
				"up": {"uv": [0, 3.5, 0.5, 4], "texture": "#missing"},
				"down": {"uv": [0, 3.5, 0.5, 4], "texture": "#missing"}
			}
		},
		{
			"from": [8, 5, 3],
			"to": [8, 12, 13],
			"rotation": {"angle": 0, "axis": "y", "origin": [-8, 0, -8]},
			"faces": {
				"east": {"uv": [0, 0, 5, 3.5], "texture": "#0"},
				"west": {"uv": [0, 0, 5, 3.5], "texture": "#0"}
			}
		}
	],
	"display": {
		"thirdperson_righthand": {
			"rotation": [67, 0, 0],
			"translation": [0, -3, 0],
			"scale": [0.5, 0.5, 0.5]
		},
		"thirdperson_lefthand": {
			"rotation": [67, 0, 0],
			"translation": [0, -3, 0],
			"scale": [0.5, 0.5, 0.5]
		},
		"firstperson_righthand": {
			"translation": [0, 4, 4],
			"scale": [0.5, 0.5, 0.5]
		},
		"firstperson_lefthand": {
			"translation": [0, 4, 4],
			"scale": [0.5, 0.5, 0.5]
		},
		"ground": {
			"translation": [0, 2.5, 0],
			"scale": [0.75, 0.75, 0.75]
		},
		"gui": {
			"rotation": [30, 110, 0],
			"translation": [1, 2, 0],
			"scale": [1, 1, 1]
		},
		"head": {
			"translation": [0, 22.5, 0],
			"scale": [2, 2, 2]
		},
		"fixed": {
			"rotation": [0, -90, 0],
			"translation": [0, 12.5, -0.5],
			"scale": [2, 2, 2]
		}
	}
}