{
	"credit": "Made with Blockbench",
	"parent": "block/block",
	"textures": {
		"9": "pizzacraft:blocks/oven_front",
		"10": "thebetweenlands:blocks/mud_bricks",
		"15": "blocks/log_oak",
		"16": "thebetweenlands:blocks/betweenstone_tiles",
		"17": "pizzacraft:blocks/oven_counterside",
		"18": "pizzacraft:blocks/oven_countertop",
		"particle": "thebetweenlands:blocks/mud_bricks"
	},
	"elements": [
		{
			"name": "log1",
			"from": [4, 2, 8],
			"to": [12, 4, 10],
			"rotation": {"angle": 22.5, "axis": "y", "origin": [8, 4, 10]},
			"faces": {
				"north": {"uv": [2, 6, 10, 8], "texture": "#15"},
				"east": {"uv": [2, 6, 4, 8], "texture": "#15"},
				"south": {"uv": [6, 6, 14, 8], "texture": "#15"},
				"west": {"uv": [4, 5, 6, 7], "texture": "#15"},
				"up": {"uv": [3, 6, 11, 8], "rotation": 180, "texture": "#15"},
				"down": {"uv": [1, 9, 9, 11], "rotation": 180, "texture": "#15"}
			}
		},
		{
			"from": [1, 0, 0],
			"to": [15, 2, 16],
			"faces": {
				"north": {"uv": [1, 0, 15, 2], "texture": "#16"},
				"east": {"uv": [0, 0, 16, 2], "texture": "#16"},
				"south": {"uv": [1, 0, 15, 2], "texture": "#16"},
				"west": {"uv": [0, 0, 16, 2], "texture": "#16"},
				"up": {"uv": [1, 0, 15, 16], "texture": "#16"},
				"down": {"uv": [1, 0, 15, 16], "texture": "#16"}
			}
		},
		{
			"name": "bottomleft",
			"from": [15, 0, 1],
			"to": [16, 2, 15],
			"faces": {
				"north": {"uv": [15, 0, 16, 2], "texture": "#16"},
				"east": {"uv": [1, 0, 15, 2], "texture": "#16"},
				"south": {"uv": [0, 0, 1, 2], "texture": "#16"},
				"west": {"uv": [1, 0, 15, 2], "texture": "#16"},
				"up": {"uv": [0, 1, 1, 15], "texture": "#16"},
				"down": {"uv": [0, 1, 1, 15], "texture": "#16"}
			}
		},
		{
			"name": "counter",
			"from": [0, 13, 0],
			"to": [16, 16, 16],
			"faces": {
				"north": {"uv": [0, 0, 16, 3], "texture": "#17"},
				"east": {"uv": [0, 0, 16, 3], "texture": "#17"},
				"south": {"uv": [0, 0, 16, 3], "texture": "#17"},
				"west": {"uv": [0, 0, 16, 3], "texture": "#17"},
				"up": {"uv": [0, 0, 16, 16], "texture": "#18"},
				"down": {"uv": [0, 0, 16, 16], "texture": "#18"}
			}
		},
		{
			"name": "NEcorner",
			"from": [13, 2, 1],
			"to": [15, 13, 3],
			"faces": {
				"north": {"uv": [0, 0, 2, 11], "texture": "#10"},
				"east": {"uv": [0, 0, 2, 11], "texture": "#10"},
				"south": {"uv": [0, 0, 2, 11], "texture": "#10"},
				"west": {"uv": [0, 0, 2, 11], "texture": "#10"},
				"up": {"uv": [0, 0, 2, 2], "texture": "#10"},
				"down": {"uv": [0, 0, 2, 2], "texture": "#10"}
			}
		},
		{
			"name": "NWcorner",
			"from": [1, 2, 1],
			"to": [3, 13, 3],
			"faces": {
				"north": {"uv": [0, 0, 2, 11], "texture": "#10"},
				"east": {"uv": [0, 0, 2, 11], "texture": "#10"},
				"south": {"uv": [0, 0, 2, 11], "texture": "#10"},
				"west": {"uv": [0, 0, 2, 11], "texture": "#10"},
				"up": {"uv": [0, 0, 2, 2], "texture": "#10"},
				"down": {"uv": [0, 0, 2, 2], "texture": "#10"}
			}
		},
		{
			"name": "SEcorner",
			"from": [13, 2, 13],
			"to": [15, 13, 15],
			"faces": {
				"north": {"uv": [0, 0, 2, 11], "texture": "#10"},
				"east": {"uv": [0, 0, 2, 11], "texture": "#10"},
				"south": {"uv": [0, 0, 2, 11], "texture": "#10"},
				"west": {"uv": [0, 0, 2, 11], "texture": "#10"},
				"up": {"uv": [0, 0, 2, 2], "texture": "#10"},
				"down": {"uv": [0, 0, 2, 2], "texture": "#10"}
			}
		},
		{
			"name": "SWcorner",
			"from": [1, 2, 13],
			"to": [3, 13, 15],
			"faces": {
				"north": {"uv": [0, 0, 2, 11], "texture": "#10"},
				"east": {"uv": [0, 0, 2, 11], "texture": "#10"},
				"south": {"uv": [0, 0, 2, 11], "texture": "#10"},
				"west": {"uv": [0, 0, 2, 11], "texture": "#10"},
				"up": {"uv": [0, 0, 2, 2], "texture": "#10"},
				"down": {"uv": [0, 0, 2, 2], "texture": "#10"}
			}
		},
		{
			"name": "frontside",
			"from": [3, 2, 1],
			"to": [13, 13, 2],
			"faces": {
				"north": {"uv": [3, 0, 13, 11], "texture": "#9"},
				"east": {"uv": [3, 0, 4, 11], "texture": "#9"},
				"south": {"uv": [3, 0, 13, 11], "texture": "#9"},
				"west": {"uv": [12, 0, 13, 11], "texture": "#9"},
				"up": {"uv": [3, 0, 13, 1], "texture": "#9"},
				"down": {"uv": [3, 11, 13, 12], "texture": "#9"}
			}
		},
		{
			"name": "backside",
			"from": [3, 2, 14],
			"to": [13, 13, 15],
			"faces": {
				"north": {"uv": [3, 0, 13, 11], "texture": "#9"},
				"east": {"uv": [3, 0, 4, 11], "texture": "#9"},
				"south": {"uv": [3, 0, 13, 11], "texture": "#9"},
				"west": {"uv": [12, 0, 13, 11], "texture": "#9"},
				"up": {"uv": [3, 0, 13, 1], "texture": "#9"},
				"down": {"uv": [3, 11, 13, 12], "texture": "#9"}
			}
		},
		{
			"name": "leftside",
			"from": [14, 2, 3],
			"to": [15, 13, 13],
			"faces": {
				"north": {"uv": [3, 0, 4, 11], "texture": "#9"},
				"east": {"uv": [3, 0, 13, 11], "texture": "#9"},
				"south": {"uv": [12, 0, 13, 11], "texture": "#9"},
				"west": {"uv": [3, 0, 13, 11], "texture": "#9"},
				"up": {"uv": [3, 0, 13, 1], "rotation": 270, "texture": "#9"},
				"down": {"uv": [3, 11, 13, 12], "rotation": 90, "texture": "#9"}
			}
		},
		{
			"name": "rightside",
			"from": [1, 2, 3],
			"to": [2, 13, 13],
			"faces": {
				"north": {"uv": [3, 0, 4, 11], "texture": "#9"},
				"east": {"uv": [3, 0, 13, 11], "texture": "#9"},
				"south": {"uv": [12, 0, 13, 11], "texture": "#9"},
				"west": {"uv": [3, 0, 13, 11], "texture": "#9"},
				"up": {"uv": [3, 0, 13, 1], "rotation": 270, "texture": "#9"},
				"down": {"uv": [3, 11, 13, 12], "rotation": 90, "texture": "#9"}
			}
		},
		{
			"name": "bottomleft",
			"from": [0, 0, 1],
			"to": [1, 2, 15],
			"faces": {
				"north": {"uv": [15, 0, 16, 2], "texture": "#16"},
				"east": {"uv": [1, 0, 15, 2], "texture": "#16"},
				"south": {"uv": [0, 0, 1, 2], "texture": "#16"},
				"west": {"uv": [1, 0, 15, 2], "texture": "#16"},
				"up": {"uv": [0, 1, 1, 15], "texture": "#16"},
				"down": {"uv": [0, 1, 1, 15], "texture": "#16"}
			}
		}
	],
	"groups": [
		{
			"name": "Pizza Oven Down 3x",
			"children": [0, 1, 2, 3, 4, 5, 6, 7, 8, 9, 10, 11, 12]
		}
	]
}