
	
{
	"parent": "mcwfences:block/parent/modern_wall_side",
	"textures": {
		"1": "thebetweenlands:blocks/mud_brick_roof",
		"particle": "thebetweenlands:blocks/mud_brick_roof",
		"wall": "thebetweenlands:blocks/mud_bricks"
	}
}