{
  "claimlimit": 1,
  "localizedname": "No Profession",
  "stacks": [
    {
      "item": "contenttweaker:access_crystal",
      "count": 1
    }
  ],
  "r": 115,
  "g": 131,
  "b": 115,
  "textR": 255,
  "textG": 255,
  "textB": 255
}