{
	"parent": "mcwfurnitures:block/parent/dresser_3",
	"textures": {
		"2": "mcwfurnitures:block/oak/stripped_spruce_log",
		"particle": "thebetweenlands:blocks/log_rubber_full",
		"texture": "thebetweenlands:blocks/log_rubber_full",
		"1_2": "thebetweenlands:blocks/syrmorite_block"
	}
}
