{
	"parent": "mcwfurnitures:block/parent/nightstand_10",
	"textures": {
		"1": "thebetweenlands:blocks/log_rubber_full",
		"2": "thebetweenlands:blocks/log_rubber_full",
		"particle": "thebetweenlands:blocks/log_rubber_full"
	}
}
