{
	"parent": "mcwfurnitures:block/parent/dresser_14",
	"textures": {
		"3": "thebetweenlands:blocks/log_rubber_full",
		"particle": "thebetweenlands:blocks/log_rubber_full",
		"texture": "thebetweenlands:blocks/log_rubber_full"
	}
}
