{
  "config_version": {
    "id": "foo_bar_baz",
    "version": 1
  },
  "dimensions": [
    {
      "dim": -2,
      "temporary_dimension": false,
      "world_template": "spawn_world",
      "jed": {
        "SkyRenderType": 0,
        "CanSpawnHostiles": false,
        "ForceGameMode": true
      },
      "biome": "thebetweenlands:raised_isles",
      "dimensiontype": {
        "id": -2,
        "name": "The World That Never Was",
        "keeploaded": false,
        "suffix": "_dim-2",
        "worldprovider": "WorldProviderSurfaceJED",
        "require_exact_match": true
      },
      "worldinfo": {},
      "worldinfo_onetime": {
        "GameType": 2,
        "generatorName": "flat",
        "generatorOptions": "3;minecraft:air;127;",
        "GameRules": {
            "keepInventory": "true",
            "doWeatherCycle": "false",
            "doDaylightCycle": "false"
        },
        "SpawnX": -1,
        "SpawnY": 109,
        "SpawnZ": -1
      }
    },
    {
      "dim": -500,
      "temporary_dimension": true,
      "jed": {
        "SkyRenderType": 2,
        "MusicType": "dungeon",
        "CanDoRainSnowIce": false,
        "CanDoLightning": false,
        "IsSurfaceWorld": false,
        "ForceGameMode": true
      },
      "biome": "arcaneworld:arcane_dungeon",
      "dimensiontype": {
        "id": -500,
        "name": "Dungeon World",
        "keeploaded": false,
        "suffix": "_dim-500",
        "worldprovider": "WorldProviderSurfaceJED",
        "require_exact_match": true
      },
      "worldinfo": {
         "Difficulty": 3
      },
      "worldinfo_onetime": {
        "GameType": 2,
        "generatorName": "flat",
        "generatorOptions": "3;minecraft:air;127;",
        "GameRules": {
            "keepInventory": "true",
            "doWeatherCycle": "false",
            "doDaylightCycle": "false",
            "doMobSpawning": "false",
            "doMobLoot": "false",
            "spawnRadius": 0
        }
      }
    },
    {
      "dim": 21,
      "temporary_dimension": true,
      "spawn_structure": {
          "name": "islands.schematic",
          "rotation": "none",
          "mirror": "none",
          "centered": true,
          "offset": [0, -19, -41]
      },
      "post_deletion_command": "tellraw @a [\"\",{\"text\":\"The Cragrock Tower Mirage has disappeared\\n\",\"obfuscated\":true,\"color\":\"dark_purple\"},{\"text\":\"The Cragrock Tower Mirage has disappeared\\n\",\"color\":\"gold\"},{\"text\":\"The Cragrock Tower Mirage has disappeared\",\"obfuscated\":true,\"color\":\"dark_purple\"}]",
      "jed": {
        "SkyRenderType": 2,
        "MusicType": "thaumicaugmentation:emptiness_music_noop",
        "void_teleport": {
          "dimension": 20,
          "trigger_y": 50,
          "find_surface": true,
          "remove_fall_damage": true,
          "fall_distance": 2,
          "min_health_left": 1,
          "teleport_type": "spawn"
        },
        "CanDoRainSnowIce": false,
        "CanDoLightning": false,
        "IsSurfaceWorld": false
      },
      "biome": "thebetweenlands:raised_isles",
      "dimensiontype": {
        "id": 21,
        "name": "Cragrock Tower Mirage",
        "keeploaded": false,
        "suffix": "_dim21",
        "worldprovider": "WorldProviderSurfaceJED",
        "require_exact_match": true
      },
      "worldinfo": {},
      "worldinfo_onetime": {
        "generatorName": "flat",
        "generatorOptions": "3;minecraft:air;127;",
        "GameRules": {
            "keepInventory": "true",
            "spawnRadius": 0
        },
        "SpawnX": 0,
        "SpawnY": 118,
        "SpawnZ": 38
      }
    },
    {
      "dim": 22,
      "temporary_dimension": true,
      "spawn_structure": {
          "name": "wight_fortress_island.schematic",
          "rotation": "none",
          "mirror": "none",
          "centered": true,
          "offset": [0, -30, 30]
      },
      "post_deletion_command": "tellraw @a [\"\",{\"text\":\"The Wight Fortress Mirage has disappeared\\n\",\"obfuscated\":true,\"color\":\"dark_purple\"},{\"text\":\"The Wight Fortress Mirage has disappeared\\n\",\"color\":\"gold\"},{\"text\":\"The Wight Fortress Mirage has disappeared\",\"obfuscated\":true,\"color\":\"dark_purple\"}]",
      "jed": {
        "SkyRenderType": 2,
        "MusicType": "thaumicaugmentation:emptiness_music_noop",
        "void_teleport": {
          "dimension": 20,
          "trigger_y": 50,
          "find_surface": true,
          "remove_fall_damage": true,
          "fall_distance": 2,
          "min_health_left": 1,
          "teleport_type": "spawn"
        },
        "SpawnPointSearchType": "none",
        "CanDoRainSnowIce": false,
        "CanDoLightning": false,
        "IsSurfaceWorld": false
      },
      "biome": "thebetweenlands:marsh_1",
      "dimensiontype": {
        "id": 22,
        "name": "Wight Fortress Mirage",
        "keeploaded": false,
        "suffix": "_dim22",
        "worldprovider": "WorldProviderSurfaceJED",
        "require_exact_match": true
      },
      "worldinfo": {},
      "worldinfo_onetime": {
        "generatorName": "flat",
        "generatorOptions": "3;minecraft:air;127;",
        "GameRules": {
            "keepInventory": "true",
            "spawnRadius": 0
        },
        "SpawnX": 0,
        "SpawnY": 120,
        "SpawnZ": 0
      }
    },
    {
      "dim": 23,
      "temporary_dimension": true,
      "spawn_structure": {
          "name": "sludgeon_platform.schematic",
          "rotation": "none",
          "mirror": "none",
          "centered": false,
          "offset": [-16, -75, -16]
      },
      "post_deletion_command": "tellraw @a [\"\",{\"text\":\"The Sludgeon Mirage has disappeared\\n\",\"obfuscated\":true,\"color\":\"dark_purple\"},{\"text\":\"The Sludgeon Mirage has disappeared\\n\",\"color\":\"gold\"},{\"text\":\"The Sludgeon Mirage has disappeared\",\"obfuscated\":true,\"color\":\"dark_purple\"}]",
      "jed": {
        "SkyRenderType": 2,
        "MusicType": "thaumicaugmentation:emptiness_music_noop",
        "void_teleport": {
          "dimension": 20,
          "trigger_y": 50,
          "find_surface": true,
          "remove_fall_damage": true,
          "fall_distance": 2,
          "min_health_left": 1,
          "teleport_type": "spawn"
        },
        "SpawnPointSearchType": "none",
        "CanDoRainSnowIce": false,
        "CanDoLightning": false,
        "IsSurfaceWorld": false
      },
      "biome": "thebetweenlands:sludge_plains_clearing",
      "dimensiontype": {
        "id": 23,
        "name": "Sludgeon Mirage",
        "keeploaded": false,
        "suffix": "_dim23",
        "worldprovider": "WorldProviderSurfaceJED",
        "require_exact_match": true
      },
      "worldinfo": {},
      "worldinfo_onetime": {
        "GameRules": {
            "keepInventory": "true",
            "spawnRadius": 0
        },
        "SpawnX": 0,
        "SpawnY": 125,
        "SpawnZ": 0
      }
    },
    {
      "dim": 0,
      "override": true,
      "jed": {
        "CanRespawnHere": false,
        "RespawnDimension": 20
      },
      "dimensiontype": {
        "id": 0,
        "keeploaded": false,
        "worldprovider": "WorldProviderSurfaceJED",
        "require_exact_match": true
      },
      "worldinfo_onetime": {
          "generatorName": "flat",
          "generatorOptions": "3;minecraft:air;1;"
      }
    },
    {
      "dim": 14676,
      "override": true,
      "jed": {
        "CanRespawnHere": true,
        "RespawnDimension": 20
      }
    },
    {
      "dim": -546,
      "override": true,
      "jed": {
        "SkyRenderType": 2,
        "CanRespawnHere": true,
        "RespawnDimension": 20,
        "ForceGameMode": true,
        "void_teleport": {
          "dimension": 20,
          "trigger_y": 20,
          "find_surface": true,
          "remove_fall_damage": true,
          "fall_distance": 2,
          "min_health_left": 1,
          "teleport_type": "spawn"
        }
      },
      "worldinfo": {
        "GameRules": {
              "keepInventory": "true",
              "doMobLoot": "false"
          }
      },
      "worldinfo_onetime": {
        "GameRules": {
            "keepInventory": "true",
            "doMobLoot": "false"
        },
        "GameType": 2
      }
    }
  ]
}