{
	"parent": "mcwfurnitures:block/parent/combined/cupboard_2",
	"textures": {
        "0": "thebetweenlands:blocks/syrmorite_block",
		"1": "thebetweenlands:blocks/root_top",
		"2": "mcwfurnitures:block/oak/stripped_birch_log",
		"particle": "thebetweenlands:blocks/root_top"
	}
}
