{
	"parent": "mcwfurnitures:block/parent/combined/cupboard_3",
	"textures": {
		"0": "mcwfurnitures:block/oak/stripped_birch_log",
		"1": "thebetweenlands:blocks/root_top",
		"3": "thebetweenlands:blocks/root_top",
		"5": "minecraft:blocks/bookshelf",
		"particle": "thebetweenlands:blocks/root_top",
		"1_2": "thebetweenlands:blocks/syrmorite_block"
	}
}
