{
	"parent": "mcwfurnitures:block/parent/combined/furniture_9",
	"textures": {
		"1": "mcwfurnitures:block/oak/stripped_birch_log",
		"3": "thebetweenlands:blocks/root_top",
		"6": "mcwfurnitures:block/oak/stripped_birch_log",
		"7": "minecraft:blocks/bookshelf",
		"particle": "thebetweenlands:blocks/root_top",
		"texture": "thebetweenlands:blocks/root_top",
		"1_2": "thebetweenlands:blocks/syrmorite_block"
	}
}
