{
	"parent": "mcwfurnitures:block/parent/combined/furniture_3",
	"textures": {
		"1": "mcwfurnitures:block/oak/stripped_acacia_log",
		"3": "thebetweenlands:blocks/log_nibbletwig_1",
		"6": "mcwfurnitures:block/oak/stripped_acacia_log",
		"7": "minecraft:blocks/bookshelf",
		"particle": "thebetweenlands:blocks/log_nibbletwig_1",
		"texture": "thebetweenlands:blocks/log_nibbletwig_1",
		"1_2": "thebetweenlands:blocks/syrmorite_block"
	}
}
