
{
	"parent": "mcwfences:block/parent/horse_fence_side",
	"textures": {
		"texture": "thebetweenlands:blocks/weedwood_planks",
		"particle": "thebetweenlands:blocks/weedwood_planks",
		"1_texture": "thebetweenlands:blocks/weedwood_planks"
	}
}