{
  "key": {
    "id": "dreadful_peat_mummy",
    "category": "journal"
  },
  "content": {
    "title": "Dreadful Peat Mummy",
    "body": "Venturing into the marshland, my curiosity led to an unnerving encounter. I had an animated mummy heart, a relic that throbbed with eerie energy. Without fully understanding the consequences, I dropped it into the swamp, awakening the Dreadful Peat Mummy from the depths.\n\nThis creature, a horrifying blend of decay and dark magic, emerged with eyes burning with malevolence. Our battle was swift and fierce, a struggle for survival against a force of pure malice. Despite its formidable power, I managed to defeat the Peat Mummy, though the victory felt uneasy.\n\nThe swamp consumed the mummy once it fell, leaving me to reflect on the potent forces at play within this realm. The act of dropping the heart into the swamp had stirred a darkness that was meant to remain hidden.\n\nThis experience has been a stark reminder of the delicate balance within this mysterious land and the dangers of meddling with unknown forces. My journey continues, but with a greater sense of caution and respect for the ancient powers that govern this place. The pursuit of knowledge is relentless, yet today taught me the importance of approaching the unknown with reverence and care.",
    "audio": "",
    "autoplay": false
  },
  "sortingIndex": 6,
  "requirements": [],
  "autoAdd": false,
  "defaultLore": false,
  "trigger": null,
  "action": null
}