{
  "key": {
    "id": "blueprint",
    "category": "Others"
  },
  "content": {
    "title": "Blueprints",
    "body": "Blueprints for a device that allows you to contact home.\nInstructions are to only build this once you evaluated this new dimension.",
    "audio": "",
    "autoplay": false
  },
  "sortingIndex": 1,
  "requirements": [],
  "autoAdd": true,
  "defaultLore": true,
  "trigger": null,
  "action": null
}