
	
{
	"parent": "mcwfences:block/parent/wired_fence_side",
	"textures": {
		"1": "thebetweenlands:blocks/log_rubber_top",
		"4": "mcwfences:block/wire_fence",
		"particle": "thebetweenlands:blocks/log_rubber_full",
		"1_texture": "thebetweenlands:blocks/log_rubber_full"
	}
}