{
	"parent": "mcwfurnitures:block/parent/nightstand_10",
	"textures": {
		"1": "thebetweenlands:blocks/log_nibbletwig_1",
		"2": "thebetweenlands:blocks/log_nibbletwig_1",
		"particle": "thebetweenlands:blocks/log_nibbletwig_1"
	}
}
