{
	"parent": "mcwfurnitures:block/parent/dresser_8",
	"textures": {
		"1": "mcwfurnitures:block/oak/stripped_acacia_log",
		"particle": "thebetweenlands:blocks/log_nibbletwig_1",
		"texture": "thebetweenlands:blocks/log_nibbletwig_1",
		"1_2": "thebetweenlands:blocks/syrmorite_block"
	}
}
