{
	"parent": "mcwfurnitures:block/parent/pult",
	"textures": {
		"1": "thebetweenlands:blocks/log_nibbletwig_1",
		"3": "thebetweenlands:blocks/log_nibbletwig_1",
		"particle": "thebetweenlands:blocks/log_nibbletwig_1"
	}
}
