{
	"parent": "mcwfurnitures:block/parent/box",
	"textures": {
		"2": "thebetweenlands:blocks/syrmorite_block",
		"3": "thebetweenlands:blocks/log_nibbletwig_1",
		"4": "mcwfurnitures:block/oak/stripped_acacia_log",
		"particle": "thebetweenlands:blocks/log_nibbletwig_1"
	}
}
