
	
{
	"parent": "mcwfences:block/parent/railing_wall_side",
	"textures": {
		"2": "mcwfences:block/iron_bar",
		"particle": "thebetweenlands:blocks/cragrock_bricks",
		"wall": "thebetweenlands:blocks/cragrock_bricks"
	}
}