
	
{
	"parent": "mcwfences:block/parent/railing_wall_side",
	"textures": {
		"2": "mcwfences:block/iron_bar",
		"particle": "embers:blocks/block_caminite_brick",
		"wall": "embers:blocks/block_caminite_brick"
	}
}