
	
{
	"parent": "mcwfences:block/parent/inventory/wired_fence",
	"textures": {
		"1": "thebetweenlands:blocks/log_hearthgrove_top",
		"4": "mcwfences:block/wire_fence",
		"1_texture": "thebetweenlands:blocks/log_hearthgrove"
	}
}