
	
{
	"parent": "mcwfences:block/parent/inventory/horse_fence",
	"textures": {
		"1_texture": "thebetweenlands:blocks/weedwood_planks",
		"1_1_texture": "thebetweenlands:blocks/weedwood_planks",
		"particle": "thebetweenlands:blocks/log_weedwood",
		"wall": "thebetweenlands:blocks/log_weedwood"
	}
}