{
  "comment": "",
  "data": [
    {
      "comment": "Rennet Making",
      "item": {
        "ore": null,
        "comment": "",
        "mod_id": "thebetweenlands",
        "name": "nettle_flowered",
        "amount": 1,
        "meta": 0
      },
      "input_fluid": {
        "comment": "Swamp Water",
        "name": "swamp_water",
        "amount": 1000
      },
      "output_fluid": {
        "comment": "Rennet",
        "name": "fluid_rennet",
        "amount": 1000
      },
      "residue": {
        "pomace": 0.0,
        "ore": null,
        "comment": "Bone Meal",
        "mod_id": "minecraft",
        "name": "dye",
        "amount": 0,
        "meta": 15
      },
      "requiresLid": false,
      "time": 1200
    },
    {
      "comment": "Salt Making",
      "item": null,
      "input_fluid": {
        "comment": "Swamp Water",
        "name": "swamp_water",
        "amount": 1000
      },
      "output_fluid": {
        "comment": "Swamp Water",
        "name": "swamp_water",
        "amount": 0
      },
      "residue": {
        "pomace": 0.0,
        "ore": null,
        "comment": "Salt",
        "mod_id": "growthcraft",
        "name": "salt",
        "amount": 1,
        "meta": 0
      },
      "requiresLid": true,
      "time": 1200
    },
    {
      "comment": "",
      "item": {
        "ore": null,
        "comment": "Sugar",
        "mod_id": "minecraft",
        "name": "sugar",
        "amount": 1,
        "meta": 0
      },
      "input_fluid": {
        "comment": "Skim Milk",
        "name": "fluid_skim_milk",
        "amount": 250
      },
      "output_fluid": {
        "comment": "Condensed Milk",
        "name": "fluid_condensed_milk",
        "amount": 250
      },
      "residue": {
        "pomace": 1.0,
        "ore": null,
        "comment": "Starter Culture",
        "mod_id": "growthcraft_milk",
        "name": "starter_culture",
        "amount": 1,
        "meta": 0
      },
      "requiresLid": false,
      "time": 1200
    }
  ]
}