{
	"parent": "mcwfurnitures:block/parent/combined/cupboard_2",
	"textures": {
        "0": "thebetweenlands:blocks/syrmorite_block",
		"1": "thebetweenlands:blocks/rotten_bark",
		"2": "mcwfurnitures:block/oak/stripped_dark_oak_log",
		"particle": "thebetweenlands:blocks/rotten_bark"
	}
}
