{
	"credit": "Made with Blockbench",
	"elements": [
		{
			"name": "lower bar",
			"from": [6, 3, 0],
			"to": [10, 5, 6],
			"rotation": {"angle": 0, "axis": "y", "origin": [6, 4, 8]},
			"faces": {
				"north": {"uv": [9, 10, 13, 12], "texture": "#1_texture", "cullface": "north"},
				"east": {"uv": [0, 10, 6, 12], "texture": "#texture"},
				"south": {"uv": [3, 2, 7, 4], "texture": "#texture"},
				"west": {"uv": [10, 10, 16, 12], "texture": "#texture"},
				"up": {"uv": [5.5, 8, 9.5, 14], "texture": "#1_texture"},
				"down": {"uv": [5.5, 0, 9.5, 6], "texture": "#1_texture"}
			}
		},
		{
			"name": "lower bar",
			"from": [6, 11, 0],
			"to": [10, 13, 6],
			"rotation": {"angle": 0, "axis": "y", "origin": [6, 12, 8]},
			"faces": {
				"north": {"uv": [7, 7, 11, 9], "texture": "#1_texture", "cullface": "north"},
				"east": {"uv": [0, 11, 6, 13], "texture": "#texture"},
				"south": {"uv": [10, 3, 14, 5], "texture": "#texture"},
				"west": {"uv": [0, 11, 6, 13], "texture": "#texture"},
				"up": {"uv": [9, 1.5, 15, 5.5], "rotation": 90, "texture": "#1_texture"},
				"down": {"uv": [5.5, 0, 9.5, 6], "texture": "#1_texture"}
			}
		},
		{
			"name": "lower bar",
			"from": [7, 5.6, 8.6],
			"to": [9, 14.6, 10.6],
			"rotation": {"angle": -45, "axis": "x", "origin": [6, 2.6, 8.6]},
			"faces": {
				"north": {"uv": [4, 9, 13, 11], "rotation": 90, "texture": "#1_texture"},
				"east": {"uv": [3, 8, 12, 10], "rotation": 90, "texture": "#1_texture"},
				"south": {"uv": [3, 9, 12, 11], "rotation": 90, "texture": "#1_texture"},
				"west": {"uv": [5, 1, 14, 3], "rotation": 90, "texture": "#1_texture"},
				"down": {"uv": [0, 0, 2, 2], "texture": "#1_texture"}
			}
		}
	],
	"groups": [0, 1, 2,
		{
			"name": "acacia_fence_post",
			"origin": [8, 8, 8],
			"children": []
		},
		{
			"name": "acacia_fence_post3",
			"origin": [8, 8, 8],
			"children": [
				{
					"name": "acacia_fence_post",
					"origin": [8, 8, 8],
					"children": []
				}
			]
		}
	]
}