{
	"credit": "Made with Blockbench",
	"elements": [
		{
			"name": "lower bar",
			"from": [-1, 0, 1],
			"to": [15, 16, 1],
			"rotation": {"angle": -45, "axis": "y", "origin": [5, 12, 3]},
			"faces": {
				"north": {"uv": [0, 0, 16, 16], "rotation": 180, "texture": "#4", "cullface": "north"},
				"south": {"uv": [16, 0, 0, 16], "rotation": 90, "texture": "#4"}
			}
		},
		{
			"name": "lower bar",
			"from": [2, 0, 3],
			"to": [18, 16, 3],
			"rotation": {"angle": 45, "axis": "y", "origin": [8, 12, 5]},
			"faces": {
				"north": {"uv": [0, 0, 16, 16], "texture": "#4", "cullface": "north"},
				"south": {"uv": [16, 0, 0, 16], "texture": "#4"}
			}
		},
		{
			"name": "Center post",
			"from": [7, 9, 0],
			"to": [9, 11, 8],
			"rotation": {"angle": 0, "axis": "x", "origin": [8, 10, 8]},
			"faces": {
				"north": {"uv": [7, 7, 9, 9], "rotation": 180, "texture": "#1", "cullface": "up"},
				"east": {"uv": [0, 0, 2, 8], "rotation": 90, "texture": "#1_texture"},
				"south": {"uv": [7, 7, 9, 9], "texture": "#1", "cullface": "down"},
				"west": {"uv": [0, 0, 2, 8], "rotation": 270, "texture": "#1_texture"},
				"up": {"uv": [0, 0, 2, 8], "texture": "#1_texture"},
				"down": {"uv": [0, 0, 2, 8], "rotation": 180, "texture": "#1_texture"}
			}
		}
	],
	"groups": [0, 1,
		{
			"name": "acacia_fence_post",
			"origin": [8, 8, 8],
			"children": []
		},
		{
			"name": "acacia_fence_post3",
			"origin": [8, 8, 8],
			"children": [
				{
					"name": "acacia_fence_post",
					"origin": [8, 8, 8],
					"children": []
				}
			]
		},
		{
			"name": "acacia_fence_post4",
			"origin": [8, 8, 8],
			"children": [
				{
					"name": "acacia_fence_post",
					"origin": [8, 8, 8],
					"children": [2]
				},
				{
					"name": "acacia_fence_side3",
					"origin": [8, 8, 8],
					"children": [
						{
							"name": "acacia_fence_post",
							"origin": [8, 8, 8],
							"children": []
						},
						{
							"name": "acacia_fence_post3",
							"origin": [8, 8, 8],
							"children": [
								{
									"name": "acacia_fence_post",
									"origin": [8, 8, 8],
									"children": []
								}
							]
						}
					]
				}
			]
		},
		{
			"name": "acacia_fence_post3",
			"origin": [8, 8, 8],
			"children": [
				{
					"name": "acacia_fence_post",
					"origin": [8, 8, 8],
					"children": []
				}
			]
		}
	]
}