{
	"parent": "mcwfurnitures:block/parent/nightstand_3",
	"textures": {
		"0": "mcwfurnitures:block/oak/stripped_dark_oak_log",
		"1": "thebetweenlands:blocks/rotten_bark",
		"2": "thebetweenlands:blocks/rotten_bark",
		"4": "minecraft:blocks/bookshelf",
		"particle": "thebetweenlands:blocks/rotten_bark",
		"1_2": "thebetweenlands:blocks/syrmorite_block"
	}
}
