{
	"parent": "mcwfurnitures:block/parent/dresser_6",
	"textures": {
		"1": "mcwfurnitures:block/oak/stripped_dark_oak_log",
		"2": "mcwfurnitures:block/oak/stripped_dark_oak_log",
		"3": "thebetweenlands:blocks/rotten_bark",
		"5": "minecraft:blocks/bookshelf",
		"particle": "thebetweenlands:blocks/rotten_bark",
		"texture": "thebetweenlands:blocks/rotten_bark",
		"1_2": "thebetweenlands:blocks/syrmorite_block"
	}
}
