{
	"parent": "mcwfurnitures:block/parent/dresser_18",
	"textures": {
		"2": "mcwfurnitures:block/oak/stripped_dark_oak_log",
		"3": "thebetweenlands:blocks/rotten_bark",
		"4": "minecraft:blocks/sapling_roofed_oak",
		"5": "minecraft:blocks/flower_pot",
		"7": "mcwfurnitures:block/oak/stripped_dark_oak_log",
		"8": "thebetweenlands:blocks/swamp_dirt",
		"particle": "thebetweenlands:blocks/rotten_bark",
		"texture": "thebetweenlands:blocks/rotten_bark",
		"1_2": "thebetweenlands:blocks/syrmorite_block"
	}
}
