{
	"parent": "mcwfurnitures:block/parent/box",
	"textures": {
		"2": "thebetweenlands:blocks/syrmorite_block",
		"3": "thebetweenlands:blocks/rotten_bark",
		"4": "mcwfurnitures:block/oak/stripped_dark_oak_log",
		"particle": "thebetweenlands:blocks/rotten_bark"
	}
}
