{
	"parent": "mcwfurnitures:block/parent/nightstand_10",
	"textures": {
		"1": "thebetweenlands:blocks/rotten_bark",
		"2": "thebetweenlands:blocks/rotten_bark",
		"particle": "thebetweenlands:blocks/rotten_bark"
	}
}
