{
	"parent": "mcwfurnitures:block/parent/pult_2",
	"textures": {
		"0": "mcwfurnitures:block/oak/stripped_dark_oak_log",
		"1": "thebetweenlands:blocks/rotten_bark",
		"3": "thebetweenlands:blocks/rotten_bark",
		"particle": "thebetweenlands:blocks/rotten_bark",
		"1_2": "thebetweenlands:blocks/syrmorite_block"
	}
}
