{
  "name": "Living Tools",
  "parent": "crafting_armor_tools",
  "sortnum" : 1,
  "description": "This category describes the making and use of the living tools that can be crafted in a fey crafter.",
  "icon": "roots:living_pickaxe"
}