{
	"credit": "Made with Blockbench, a free, modern block model editor by JannisX11",
	"textures": {
		"0": "embers:blocks/ashen_tile",
		"1": "embers:blocks/block_silver",
		"2": "embers:blocks/ashen_stone",
		"3": "soot:blocks/insulator",
		"particle": "soot:blocks/insulator"
	},
	"elements": [
		{
			"from": [2, 13, 2],
			"to": [14, 15, 14],
			"shade": true,
			"faces": {
				"north": {"uv": [2, 4, 14, 6], "texture": "#1"},
				"east": {
					"uv": [13, 2, 15, 14],
					"texture": "#1",
					"rotation": 90
				},
				"south": {"uv": [2, 13, 14, 15], "texture": "#1"},
				"west": {
					"uv": [1, 2, 3, 14],
					"texture": "#1",
					"rotation": 90
				},
				"up": {"uv": [2, 2, 14, 14], "texture": "#1"},
				"down": {"uv": [2, 2, 14, 14], "texture": "#1"}
			}
		},
		{
			"from": [0, 12, 0],
			"to": [4, 16, 4],
			"shade": true,
			"faces": {
				"north": {"uv": [0, 0, 4, 4], "texture": "#0"},
				"east": {"uv": [0, 0, 4, 4], "texture": "#0"},
				"south": {"uv": [0, 0, 4, 4], "texture": "#0"},
				"west": {"uv": [0, 0, 4, 4], "texture": "#0"},
				"up": {"uv": [0, 0, 4, 4], "texture": "#0"},
				"down": {"uv": [0, 0, 4, 4], "texture": "#0"}
			}
		},
		{
			"from": [12, 12, 0],
			"to": [16, 16, 4],
			"shade": true,
			"faces": {
				"north": {"uv": [0, 0, 4, 4], "texture": "#0"},
				"east": {"uv": [0, 0, 4, 4], "texture": "#0"},
				"south": {"uv": [0, 0, 4, 4], "texture": "#0"},
				"west": {"uv": [0, 0, 4, 4], "texture": "#0"},
				"up": {"uv": [0, 0, 4, 4], "texture": "#0"},
				"down": {"uv": [0, 0, 4, 4], "texture": "#0"}
			}
		},
		{
			"name": "cube",
			"from": [12, 12, 12],
			"to": [16, 16, 16],
			"shade": true,
			"faces": {
				"north": {"uv": [0, 0, 4, 4], "texture": "#0"},
				"east": {"uv": [0, 0, 4, 4], "texture": "#0"},
				"south": {"uv": [0, 0, 4, 4], "texture": "#0"},
				"west": {"uv": [0, 0, 4, 4], "texture": "#0"},
				"up": {"uv": [0, 0, 4, 4], "texture": "#0"},
				"down": {"uv": [0, 0, 4, 4], "texture": "#0"}
			}
		},
		{
			"name": "cube",
			"from": [0, 12, 12],
			"to": [4, 16, 16],
			"shade": true,
			"faces": {
				"north": {"uv": [0, 0, 4, 4], "texture": "#0"},
				"east": {"uv": [0, 0, 4, 4], "texture": "#0"},
				"south": {"uv": [0, 0, 4, 4], "texture": "#0"},
				"west": {"uv": [0, 0, 4, 4], "texture": "#0"},
				"up": {"uv": [0, 0, 4, 4], "texture": "#0"},
				"down": {"uv": [0, 0, 4, 4], "texture": "#0"}
			}
		},
		{
			"name": "cube",
			"from": [1, 4, 1],
			"to": [15, 13, 15],
			"shade": true,
			"faces": {
				"north": {"uv": [1, 0, 15, 9], "texture": "#2"},
				"east": {"uv": [1, 0, 15, 9], "texture": "#2"},
				"south": {"uv": [1, 0, 15, 9], "texture": "#2"},
				"west": {"uv": [1, 0, 15, 9], "texture": "#2"},
				"up": {"uv": [1, 1, 15, 15], "texture": "#2"},
				"down": {"uv": [1, 1, 15, 15], "texture": "#2"}
			}
		},
		{
			"name": "cube",
			"from": [0, 0, 0],
			"to": [16, 4, 16],
			"shade": true,
			"faces": {
				"north": {"uv": [0, 0, 16, 4], "texture": "#0"},
				"east": {"uv": [0, 0, 16, 4], "texture": "#0"},
				"south": {"uv": [0, 0, 16, 4], "texture": "#0"},
				"west": {"uv": [0, 0, 16, 4], "texture": "#0"},
				"up": {"uv": [0, 0, 16, 16], "texture": "#0"},
				"down": {"uv": [0, 0, 16, 16], "texture": "#3"}
			}
		}
	]
}