[
    {
        "key": "LIQUIDDEATH",    
        "ops": [
            {
                "op": "remove",
                "path": "stages/1/recipes"
            },
            {
                "op": "remove",
                "path": "category"
            },
            {
                "op": "remove",
                "path": "parents"
            }
        ]
    },
    {
        "key": "HEDGEALCHEMY",
        "ops": [
            {
                "op": "replace",
                "path": "stages/0/required_craft",
                "value": ["thaumcraft:hedge_leather"]
            },
            {
                "op": "replace",
                "path": "stages/0/recipes",
                "value": ["thaumcraft:hedge_leather", "thaumcraft:hedge_web"]
            },
            {
                "op": "remove",
                "path": "stages/1/required_craft"
            },
            {
                "op": "remove",
                "path": "stages/2/required_craft"
            },
            {
                "op": "replace",
                "path": "stages/1/recipes",
                "value": ["thaumcraft:hedge_leather", "thaumcraft:hedge_web"]
            },
            {
                "op": "replace",
                "path": "stages/2/recipes",
                "value": ["thaumcraft:hedge_leather", "thaumcraft:hedge_web"]
            },
            {
                "op": "replace",
                "path": "stages/3/recipes",
                "value": ["thaumcraft:hedge_leather", "thaumcraft:hedge_web"]
            }
        ]
    },
    {
        "key": "TUBES",
        "ops": [
            {
                "op": "replace",
                "path": "stages/1/recipes/2",
                "value": "crafttweaker:tubevalve"
            }
        ]
    },
    {
        "key": "WARDEDJARS",
        "ops": [
            {
                "op": "replace",
                "path": "stages/0/recipes/3",
                "value": "crafttweaker:thaumcraft_jarlabel"
            }
        ]
    }
]