[
    {
        "key": "FIRSTSTEPS",
        "ops": [
            {
                "op": "replace",
                "path": "stages/0/recipes",
                "value": ["crafttweaker:salismundus"]
            },
            {
                "op": "replace",
                "path": "stages/1/recipes",
                "value": ["thaumcraft:thaumometer","crafttweaker:salismundus"]
            },
            {
                "op": "replace",
                "path": "stages/2/recipes",
                "value": ["thaumcraft:thaumometer","crafttweaker:salismundus","crafttweaker:stonearcane","thaumcraft:BrickArcane"]
            }
        ]
    },
    {
        "key": "THEORYRESEARCH",
        "ops": [
            {
                "op": "replace",
                "path": "stages/0/recipes",
                "value": ["crafttweaker:scribingtoolscraft1_shaped", "teastory:green_tea_bag", "teastory:black_tea_bag", "teastory:yellow_tea_bag", "teastory:white_tea_bag", "teastory:oolong_tea_bag", "teastory:puer_tea_bag"]
            },
            {
                "op": "replace",
                "path": "stages/0/required_craft",
                "value": ["crafttweaker:scribingtoolscraft1_shaped", "teastory:green_tea_bag"]
            },
            {
                "op": "replace",
                "path": "stages/1/recipes",
                "value": ["crafttweaker:scribingtoolscraft1_shaped", "teastory:green_tea_bag", "teastory:black_tea_bag", "teastory:yellow_tea_bag", "teastory:white_tea_bag", "teastory:oolong_tea_bag", "teastory:puer_tea_bag"]
            },
            {
                "op": "replace",
                "path": "icons",
                "value": ["teastory:textures/items/green_tea_bag.png"]
            }
        ]
    },
    {
        "key": "CELESTIALSCANNING",
        "ops": [
            {
                "op": "replace",
                "path": "icons",
                "value": ["minecraft:textures/blocks/bookshelf.png"]
            }
        ]
    }
]