[
    {
        "key": "IMPETUS",
        "ops": [
            {
                "op": "replace",
                "path": "stages/1/recipes",
                "value": [
                        "thaumicaugmentation:impetus_jewel",
                        "thaumicaugmentation:impetus_drainer",
                        "thaumicaugmentation:impetus_relay",
                        "thaumicaugmentation:impetus_diffuser",
                        "thaumcraft:impetus_linker",
                        "thaumicaugmentation:ancient_lantern"
                    ]
            }
        ]
    },
    {
        "key": "IMPETUS_GATE",
        "ops": [
            {
                "op": "replace",
                "path": "stages/1/recipes",
                "value": ["thaumcraft:impetus_gate"]
            }
        ]
    },
    {
        "key": "ARCANE_TERRAFORMER",    
        "ops": [
            {
                "op": "remove",
                "path": "stages/1/recipes"
            },
            {
                "op": "remove",
                "path": "category"
            },
            {
                "op": "remove",
                "path": "parents"
            }
        ]
    }
]

