
	
{
	"parent": "mcwfences:block/parent/picket_fence_side",
	"textures": {
		"2": "thebetweenlands:blocks/log_hearthgrove",
		"particle": "thebetweenlands:blocks/hearthgrove_planks",
		"texture": "thebetweenlands:blocks/hearthgrove_planks"
	}
}