{
	"parent": "mcwfurnitures:block/parent/combined/furniture_5",
	"textures": {
		"1": "mcwfurnitures:block/oak/stripped_jungle_log",
		"3": "thebetweenlands:blocks/log_hearthgrove",
		"4": "mcwfurnitures:block/oak/stripped_jungle_log",
		"particle": "thebetweenlands:blocks/log_hearthgrove",
		"texture": "thebetweenlands:blocks/log_hearthgrove",
		"1_2": "thebetweenlands:blocks/syrmorite_block"
	}
}
