{
    "parent": "minecraft:item/handheld",
    "textures": 
    {
        "layer0": "botania:items/manasteel_pickaxe"
    },
  "overrides": [
        { "predicate": { "corrosion": 0.0 }, "model": "botania:item/manasteel_pickaxe_corrosion_0" },
        { "predicate": { "corrosion": 1.0 }, "model": "botania:item/manasteel_pickaxe_corrosion_1" },
        { "predicate": { "corrosion": 2.0 }, "model": "botania:item/manasteel_pickaxe_corrosion_2" },
        { "predicate": { "corrosion": 3.0 }, "model": "botania:item/manasteel_pickaxe_corrosion_3" },
        { "predicate": { "corrosion": 4.0 }, "model": "botania:item/manasteel_pickaxe_corrosion_4" },
        { "predicate": { "corrosion": 5.0 }, "model": "botania:item/manasteel_pickaxe_corrosion_5" }
    ]
}