{
  "name": "Living Pickaxe",
  "icon": "roots:living_pickaxe",
  "category": "crafting_armor_tools_living",
  "read_by_default": true,
  "pages": [
    {
      "type": "text",
      "text": "Living tools have a significant advantage over other tools in that they repair themselves as time passes.$(br2)$(info) While having the same harvest level as an octine tool, their overall durability is slightly less."
    },
    {
      "type": "fey_crafting_template",
      "recipe": "living_pickaxe"
    },
    {
      "type": "relations",
      "anchor": "related",
      "entries": [
        "crafting/fey_crafter",
        "crafting/terrastone_pickaxe",
        "crafting/runed_smasher",
        "resources/bark"
      ]
    }
  ]
}