{
	"parent": "mcwbridges:block/parent/log_bridge_middle",
	"textures": {
		"0": "thebetweenlands:blocks/root_bottom",
		"2": "thebetweenlands:blocks/giant_root_planks",
		"particle": "thebetweenlands:blocks/root_bottom"
	}
}
