{
	"parent": "mcwbridges:block/parent/log_bridge_middle",
	"textures": {
		"0": "thebetweenlands:blocks/rotten_bark",
		"2": "thebetweenlands:blocks/rotten_planks",
		"particle": "thebetweenlands:blocks/rotten_bark"
	}
}
