{
	"parent": "mcwbridges:block/parent/rope_bridge_end",
	"textures": {
		"0": "mcwbridges:blocks/lead_knot_vert",
		"2": "thebetweenlands:blocks/nibbletwig_planks",
		"3": "thebetweenlands:blocks/log_nibbletwig_1",
		"4": "mcwbridges:blocks/lead_knot",
		"particle": "thebetweenlands:blocks/log_nibbletwig_1"
	}
}


