{
	"parent": "mcwbridges:block/parent/rope_bridge",
	"textures": {
		"0": "mcwbridges:blocks/lead_knot_vert",
		"2": "thebetweenlands:blocks/weedwood_planks",
		"4": "mcwbridges:blocks/lead_knot",
      	"particle": "thebetweenlands:blocks/weedwood_planks"
	}
}

