{
  "rules": [
    {
      "match": {
        "blocks": {
          "blocks": [
            "thebetweenlands:black_ice"
          ]
        }
      },
      "replaceStrategy": "REPLACE_ALL_IF_SELECTED",
      "drops": [
        {
          "selector": {
            "silktouch": "EXCLUDED"
          },
          "item": {
            "items": [
              "simpledifficulty:ice_chunk"
            ],
            "quantity": {
              "min": 1,
              "max": 4
            }
          }
        }
      ]
    }
  ]
}


