{
  "rules": [
    {
      "match": {
        "drops": {
          "drops": [
            "ore:oreSyrmorite"
          ]
        },
        "harvester": {
          "type": "PLAYER",
          "heldItemMainHand": {
            "items": [
              "thebetweenlands:octine_pickaxe:*"
            ]
          }
        }
      },
      "replaceStrategy": "REPLACE_ITEMS_IF_SELECTED",
      "drops": [
        {
          "selector": {
            "weight": {
              "value": 20
            }
          },
          "item": {
            "items": [
              "pyrotech:generated_pile_slag_syrmorite"
            ]
          }
        },
        {
          "selector": {
            "weight": {
              "value": 80
            }
          }
        }
      ]
    },
    {
      "match": {
        "drops": {
          "drops": [
            "ore:oreOctine"
          ]
        },
        "harvester": {
          "type": "PLAYER",
          "heldItemMainHand": {
            "items": [
              "thebetweenlands:octine_pickaxe:*"
            ]
          }
        }
      },
      "replaceStrategy": "REPLACE_ITEMS_IF_SELECTED",
      "drops": [
        {
          "selector": {
            "weight": {
              "value": 20
            }
          },
          "item": {
            "items": [
              "pyrotech:generated_pile_slag_octine"
            ]
          }
        },
        {
          "selector": {
            "weight": {
              "value": 80
            }
          }
        }
      ]
    },
    {
      "match": {
        "drops": {
          "drops": [
            "ore:oreLead"
          ]
        },
        "harvester": {
          "type": "PLAYER",
          "heldItemMainHand": {
            "items": [
              "thebetweenlands:octine_pickaxe:*"
            ]
          }
        }
      },
      "replaceStrategy": "REPLACE_ITEMS_IF_SELECTED",
      "drops": [
        {
          "selector": {
            "weight": {
              "value": 20
            }
          },
          "item": {
            "items": [
              "pyrotech:generated_pile_slag_lead"
            ]
          }
        },
        {
          "selector": {
            "weight": {
              "value": 80
            }
          }
        }
      ]
    },
    {
      "match": {
        "drops": {
          "drops": [
            "ore:oreSilver"
          ]
        },
        "harvester": {
          "type": "PLAYER",
          "heldItemMainHand": {
            "items": [
              "thebetweenlands:octine_pickaxe:*"
            ]
          }
        }
      },
      "replaceStrategy": "REPLACE_ITEMS_IF_SELECTED",
      "drops": [
        {
          "selector": {
            "weight": {
              "value": 20
            }
          },
          "item": {
            "items": [
              "pyrotech:generated_pile_slag_silver"
            ]
          }
        },
        {
          "selector": {
            "weight": {
              "value": 80
            }
          }
        }
      ]
    },
    {
      "match": {
        "drops": {
          "drops": [
            "ore:oreNickel"
          ]
        },
        "harvester": {
          "type": "PLAYER",
          "heldItemMainHand": {
            "items": [
              "thebetweenlands:octine_pickaxe:*"
            ]
          }
        }
      },
      "replaceStrategy": "REPLACE_ITEMS_IF_SELECTED",
      "drops": [
        {
          "selector": {
            "weight": {
              "value": 20
            }
          },
          "item": {
            "items": [
              "pyrotech:generated_pile_slag_nickel"
            ]
          }
        },
        {
          "selector": {
            "weight": {
              "value": 80
            }
          }
        }
      ]
    },
    {
      "match": {
        "drops": {
          "drops": [
            "ore:oreCopper"
          ]
        },
        "harvester": {
          "type": "PLAYER",
          "heldItemMainHand": {
            "items": [
              "thebetweenlands:octine_pickaxe:*"
            ]
          }
        }
      },
      "replaceStrategy": "REPLACE_ITEMS_IF_SELECTED",
      "drops": [
        {
          "selector": {
            "weight": {
              "value": 20
            }
          },
          "item": {
            "items": [
              "pyrotech:generated_pile_slag_copper"
            ]
          }
        },
        {
          "selector": {
            "weight": {
              "value": 80
            }
          }
        }
      ]
    },
    {
      "match": {
        "drops": {
          "drops": [
            "ore:oreAluminum"
          ]
        },
        "harvester": {
          "type": "PLAYER",
          "heldItemMainHand": {
            "items": [
              "thebetweenlands:octine_pickaxe:*"
            ]
          }
        }
      },
      "replaceStrategy": "REPLACE_ITEMS_IF_SELECTED",
      "drops": [
        {
          "selector": {
            "weight": {
              "value": 20
            }
          },
          "item": {
            "items": [
              "pyrotech:generated_pile_slag_aluminum"
            ]
          }
        },
        {
          "selector": {
            "weight": {
              "value": 80
            }
          }
        }
      ]
    }
  ]
}
